<?xml version="1.0" encoding="UTF-8"?>
<svg width="23px" height="13px" viewBox="0 0 23 13" version="1.1" xmlns="http://www.w3.org/2000/svg" xmlns:xlink="http://www.w3.org/1999/xlink">
    <!-- Generator: Sketch 51.2 (57519) - http://www.bohemiancoding.com/sketch -->
    <title>vehicles</title>
    <desc>Created with Sketch.</desc>
    <defs></defs>
    <g id="Page-1-Copy" stroke="none" stroke-width="1" fill="none" fill-rule="evenodd">
        <g id="screen-2" transform="translate(-197.000000, -151.000000)" fill="#263238" fill-rule="nonzero">
            <g id="side-panel" transform="translate(0.000000, 68.000000)">
                <g id="Group-2" transform="translate(5.835616, 31.000000)">
                    <g id="1">
                        <g id="Group-3" transform="translate(179.931507, 35.000000)">
                            <path d="M14,17 C12.89,17 12,17.89 12,19 L12,27 L14,27 C14,28.6568542 15.3431458,30 17,30 C18.6568542,30 20,28.6568542 20,27 L26,27 C26,28.6568542 27.3431458,30 29,30 C30.6568542,30 32,28.6568542 32,27 L34,27 L34,23 C34,21.89 33.11,21 32,21 L29,17 L14,17 Z M14,18.5 L18,18.5 L18,21 L14,21 L14,18.5 Z M20,18.5 L24,18.5 L24,21 L20,21 L20,18.5 Z M26,18.5 L28.5,18.5 L30.46,21 L26,21 L26,18.5 Z M17,25.5 C17.8284271,25.5 18.5,26.1715729 18.5,27 C18.5,27.8284271 17.8284271,28.5 17,28.5 C16.1715729,28.5 15.5,27.8284271 15.5,27 C15.5,26.1715729 16.1715729,25.5 17,25.5 Z M29,25.5 C29.8284271,25.5 30.5,26.1715729 30.5,27 C30.5,27.8284271 29.8284271,28.5 29,28.5 C28.1715729,28.5 27.5,27.8284271 27.5,27 C27.5,26.1715729 28.1715729,25.5 29,25.5 Z" id="vehicles"></path>
                        </g>
                    </g>
                </g>
            </g>
        </g>
    </g>
</svg>