<?xml version="1.0" encoding="UTF-8"?>
<svg width="16px" height="18px" viewBox="0 0 16 18" version="1.1" xmlns="http://www.w3.org/2000/svg" xmlns:xlink="http://www.w3.org/1999/xlink">
    <!-- Generator: Sketch 51.2 (57519) - http://www.bohemiancoding.com/sketch -->
    <title>alerts</title>
    <desc>Created with Sketch.</desc>
    <defs></defs>
    <g id="Page-1-Copy" stroke="none" stroke-width="1" fill="none" fill-rule="evenodd">
        <g id="screen-2" transform="translate(-201.000000, -259.000000)" fill="#263238" fill-rule="nonzero">
            <g id="side-panel" transform="translate(0.000000, 68.000000)">
                <g id="Group-2" transform="translate(5.835616, 31.000000)">
                    <g id="2" transform="translate(0.000000, 111.000000)">
                        <g id="alerts" transform="translate(179.931507, 35.000000)">
                            <path d="M29.2352941,26.3529412 L29.2352941,21.5 C29.2352941,18.7911765 27.3470588,16.5235294 24.8235294,15.9235294 L24.8235294,15.3235294 C24.8235294,14.5925643 24.2309651,14 23.5,14 C22.7690349,14 22.1764706,14.5925643 22.1764706,15.3235294 L22.1764706,15.9235294 C19.6441176,16.5235294 17.7647059,18.7911765 17.7647059,21.5 L17.7647059,26.3529412 L16,28.1176471 L16,29 L31,29 L31,28.1176471 L29.2352941,26.3529412 Z M23.5,31.6470588 C24.4746201,31.6470588 25.2647059,30.8569731 25.2647059,29.8823529 L21.7352941,29.8823529 C21.7352941,30.8569731 22.5253799,31.6470588 23.5,31.6470588 Z"></path>
                        </g>
                    </g>
                </g>
            </g>
        </g>
    </g>
</svg>