<?xml version="1.0" encoding="UTF-8"?>
<svg width="19px" height="20px" viewBox="0 0 19 20" version="1.1" xmlns="http://www.w3.org/2000/svg" xmlns:xlink="http://www.w3.org/1999/xlink">
    <!-- Generator: Sketch 51.2 (57519) - http://www.bohemiancoding.com/sketch -->
    <title>stops</title>
    <desc>Created with Sketch.</desc>
    <defs></defs>
    <g id="Page-1-Copy" stroke="none" stroke-width="1" fill="none" fill-rule="evenodd">
        <g id="screen-2" transform="translate(-199.000000, -328.000000)" fill="#263238" fill-rule="nonzero">
            <g id="side-panel" transform="translate(0.000000, 68.000000)">
                <g id="Group-2" transform="translate(5.835616, 31.000000)">
                    <g id="2" transform="translate(0.000000, 111.000000)">
                        <g id="stops" transform="translate(180.000000, 105.000000)">
                            <path d="M25,22.5 C25.6630412,22.5 26.298926,22.2366079 26.767767,21.767767 C27.2366079,21.298926 27.5,20.6630412 27.5,20 C27.5,18.6192881 26.3807119,17.5 25,17.5 C23.6192881,17.5 22.5,18.6192881 22.5,20 C22.5,21.3807119 23.6192881,22.5 25,22.5 Z M25,13 C28.86,13 32,16.13 32,20 C32,25.25 25,33 25,33 C25,33 18,25.25 18,20 C18,16.1340068 21.1340068,13 25,13 Z M16,20 C16,24.5 21.08,30.66 22,31.81 L21,33 C21,33 14,25.25 14,20 C14,16.83 16.11,14.15 19,13.29 C17.16,14.94 16,17.33 16,20 Z"></path>
                        </g>
                    </g>
                </g>
            </g>
        </g>
    </g>
</svg>