<?xml version="1.0" encoding="UTF-8"?>
<svg width="23px" height="14px" viewBox="0 0 23 14" version="1.1" xmlns="http://www.w3.org/2000/svg" xmlns:xlink="http://www.w3.org/1999/xlink">
    <!-- Generator: Sketch 51.2 (57519) - http://www.bohemiancoding.com/sketch -->
    <title>Shape</title>
    <desc>Created with Sketch.</desc>
    <defs></defs>
    <g id="Page-1-Copy" stroke="none" stroke-width="1" fill="none" fill-rule="evenodd">
        <g id="screen-2" transform="translate(-42.000000, -150.000000)" fill="#263238" fill-rule="nonzero">
            <g id="side-panel" transform="translate(0.000000, 68.000000)">
                <g id="Group-2" transform="translate(5.835616, 31.000000)">
                    <g id="1">
                        <g id="Group-3" transform="translate(20.315068, 35.000000)">
                            <path d="M31,24 C30.71,24 30.38,24 30.03,24.05 C31.19,24.89 32,26 32,27.5 L32,30 L38,30 L38,27.5 C38,25.17 33.33,24 31,24 Z M23,24 C20.67,24 16,25.17 16,27.5 L16,30 L30,30 L30,27.5 C30,25.17 25.33,24 23,24 Z M23,22 C24.6568542,22 26,20.6568542 26,19 C26,17.3431458 24.6568542,16 23,16 C21.3431458,16 20,17.3431458 20,19 C20,20.6568542 21.3431458,22 23,22 Z M31,22 C32.6568542,22 34,20.6568542 34,19 C34,17.3431458 32.6568542,16 31,16 C29.3431458,16 28,17.3431458 28,19 C28,20.6568542 29.3431458,22 31,22 Z" id="Shape"></path>
                        </g>
                    </g>
                </g>
            </g>
        </g>
    </g>
</svg>