<?xml version="1.0" encoding="UTF-8"?>
<svg width="21px" height="20px" viewBox="0 0 21 20" version="1.1" xmlns="http://www.w3.org/2000/svg" xmlns:xlink="http://www.w3.org/1999/xlink">
    <!-- Generator: Sketch 51.2 (57519) - http://www.bohemiancoding.com/sketch -->
    <title>gauge</title>
    <desc>Created with Sketch.</desc>
    <defs></defs>
    <g id="Page-1-Copy" stroke="none" stroke-width="1" fill="none" fill-rule="evenodd">
        <g id="screen-2" transform="translate(-121.000000, -509.000000)" fill="#263238" fill-rule="nonzero">
            <g id="side-panel" transform="translate(0.000000, 68.000000)">
                <g id="Group-2" transform="translate(5.835616, 31.000000)">
                    <g id="4" transform="translate(0.000000, 362.000000)">
                        <g id="gauge" transform="translate(103.000000, 35.000000)">
                            <path d="M23,13 C17.4771525,13 13,17.4771525 13,23 C13,25.6521649 14.0535684,28.195704 15.9289322,30.0710678 C17.804296,31.9464316 20.3478351,33 23,33 C25.6521649,33 28.195704,31.9464316 30.0710678,30.0710678 C31.9464316,28.195704 33,25.6521649 33,23 C33,20.3478351 31.9464316,17.804296 30.0710678,15.9289322 C28.195704,14.0535684 25.6521649,13 23,13 Z M23,15 C27.418278,15 31,18.581722 31,23 C31,25.4 30,27.5 28.3,29 C26.9,27.7 25,27 23,27 C21,27 19.2,27.7 17.7,29 C16,27.5 15,25.4 15,23 C15,18.581722 18.581722,15 23,15 Z M25,16.89 C24.62,16.9 24.26,17.15 24.1,17.54 L22.81,20.77 L22.71,21 C22,21.13 21.41,21.6 21.14,22.26 C20.73,23.29 21.23,24.45 22.26,24.86 C23.29,25.27 24.45,24.77 24.86,23.74 C25.12,23.08 25,22.32 24.57,21.76 L24.67,21.5 L25.96,18.29 L25.97,18.26 C26.17,17.75 25.92,17.17 25.41,16.96 C25.28,16.91 25.15,16.89 25,16.89 Z M21,17 C20.4477153,17 20,17.4477153 20,18 C20,18.5522847 20.4477153,19 21,19 C21.5522847,19 22,18.5522847 22,18 C22,17.4477153 21.5522847,17 21,17 Z M18,20 C17.4477153,20 17,20.4477153 17,21 C17,21.5522847 17.4477153,22 18,22 C18.5522847,22 19,21.5522847 19,21 C19,20.4477153 18.5522847,20 18,20 Z M28,20 C27.4477153,20 27,20.4477153 27,21 C27,21.5522847 27.4477153,22 28,22 C28.5522847,22 29,21.5522847 29,21 C29,20.4477153 28.5522847,20 28,20 Z"></path>
                        </g>
                    </g>
                </g>
            </g>
        </g>
    </g>
</svg>