<?xml version="1.0" encoding="UTF-8"?>
<svg width="21px" height="20px" viewBox="0 0 21 20" version="1.1" xmlns="http://www.w3.org/2000/svg" xmlns:xlink="http://www.w3.org/1999/xlink">
    <!-- Generator: Sketch 51.2 (57519) - http://www.bohemiancoding.com/sketch -->
    <title>trips</title>
    <desc>Created with Sketch.</desc>
    <defs></defs>
    <g id="Page-1-Copy" stroke="none" stroke-width="1" fill="none" fill-rule="evenodd">
        <g id="screen-2" transform="translate(-120.000000, -328.000000)" fill="#263238" fill-rule="nonzero">
            <g id="side-panel" transform="translate(0.000000, 68.000000)">
                <g id="Group-2" transform="translate(5.835616, 31.000000)">
                    <g id="2" transform="translate(0.000000, 111.000000)">
                        <g id="trips" transform="translate(102.000000, 105.000000)">
                            <path d="M17.5,19.11 C16.61,19.11 15.89,18.39 15.89,17.5 C15.89,16.6108216 16.6108216,15.89 17.5,15.89 C18.39,15.89 19.11,16.61 19.11,17.5 C19.11,18.3891784 18.3891784,19.11 17.5,19.11 Z M17.5,13 C15,13 13,15 13,17.5 C13,20.87 17.5,25.86 17.5,25.86 C17.5,25.86 22,20.87 22,17.5 C22,15 20,13 17.5,13 Z M28.5,19.11 C27.6108216,19.11 26.89,18.3891784 26.89,17.5 C26.89,16.61 27.61,15.89 28.5,15.89 C29.39,15.89 30.11,16.61 30.11,17.5 C30.11,18.3891784 29.3891784,19.11 28.5,19.11 Z M28.5,13 C26,13 24,15 24,17.5 C24,20.87 28.5,25.86 28.5,25.86 C28.5,25.86 33,20.87 33,17.5 C33,15 31,13 28.5,13 Z M28.5,27 C27.23,27 26.1,27.8 25.68,29 L20.32,29 C19.77,27.44 18.05,26.62 16.5,27.17 C14.93,27.72 14.11,29.44 14.66,31 C15.22,32.56 16.93,33.38 18.5,32.83 C19.35,32.53 20,31.85 20.32,31 L25.69,31 C26.24,32.56 27.96,33.38 29.5,32.83 C31.08,32.28 31.9,30.56 31.35,29 C30.92,27.8 29.78,27 28.5,27 Z M28.5,31.5 C27.6715729,31.5 27,30.8284271 27,30 C27,29.1715729 27.6715729,28.5 28.5,28.5 C29.3284271,28.5 30,29.1715729 30,30 C30,30.8284271 29.3284271,31.5 28.5,31.5 Z"></path>
                        </g>
                    </g>
                </g>
            </g>
        </g>
    </g>
</svg>